module backend

go 1.22

require (
	github.com/gofiber/contrib/jwt v1.0.7
	github.com/gofiber/fiber/v2 v2.52.1
	github.com/golang-jwt/jwt/v5 v5.2.0
	github.com/joho/godotenv v1.5.1
	golang.org/x/crypto v0.21.0
	gorm.io/driver/mysql v1.5.7
	gorm.io/gorm v1.25.7
)

require (
	github.com/MicahParks/keyfunc/v2 v2.1.0 // indirect
	github.com/andybalholm/brotli v1.0.5 // indirect
	github.com/go-sql-driver/mysql v1.7.0 // indirect
	github.com/google/uuid v1.5.0 // indirect
	github.com/jinzhu/inflection v1.0.0 // indirect
	github.com/jinzhu/now v1.1.5 // indirect
	github.com/klauspost/compress v1.17.0 // indirect
	github.com/mattn/go-colorable v0.1.13 // indirect
	github.com/mattn/go-isatty v0.0.20 // indirect
	github.com/mattn/go-runewidth v0.0.15 // indirect
	github.com/rivo/uniseg v0.2.0 // indirect
	github.com/valyala/bytebufferpool v1.0.0 // indirect
	github.com/valyala/fasthttp v1.51.0 // indirect
	github.com/valyala/tcplisten v1.0.0 // indirect
	golang.org/x/sys v0.18.0 // indirect
)
